Stillbirth-From-2011-to-2020 - Vivian's Assignment
…
package <- show_package("93b2ff8c-989b-49cd-8597-5286c95a287e")
package
## # A tibble: 1 x 10
##   title id    topics civic_issues excerpt dataset_category num_resources formats
##   <chr> <chr> <chr>  <chr>        <chr>   <chr>                    <int> <chr>  
## 1 Stil… 93b2… <NA>   <NA>         <NA>    <NA>                         1 <NA>   
## # … with 2 more variables: refresh_rate <chr>, last_refreshed <date>
resources <- list_package_resources("93b2ff8c-989b-49cd-8597-5286c95a287e")
datastore_resources <- filter(resources, tolower(format) %in% c('csv', 'geojson'))
data <- filter(datastore_resources, row_number()==1) %>% get_resource()
data
## # A tibble: 109 x 4
##    `_id` CIVIC_CENTRE STILLBIRTH_LICENSES TIME_PERIOD
##    <int> <chr>                      <int> <chr>      
##  1  1740 ET                            24 2011-01    
##  2  1741 ET                            12 2011-02    
##  3  1742 ET                            17 2011-03    
##  4  1743 ET                            38 2011-04    
##  5  1744 ET                            20 2011-05    
##  6  1745 ET                             2 2011-06    
##  7  1746 ET                           116 2011-08    
##  8  1747 ET                           144 2011-09    
##  9  1748 ET                            65 2011-10    
## 10  1749 ET                           107 2011-11    
## # … with 99 more rows
…
